<svg xmlns="http://www.w3.org/2000/svg" width="18" height="19" viewBox="0 0 18 19">
  <path fill="#007AFF" fill-rule="evenodd" d="M9.0101791,8.82972174 L0.461336267,0.280746269 L0.0101791045,0.731903431 L8.55909176,9.28081609 L0.0101791045,17.8298614 L0.461336267,18.2807463 L9.0101791,9.73190343 L17.5590219,18.2807463 L18.0101791,17.8298614 L9.46126645,9.28081609 L18.0101791,0.731903431 L17.5590219,0.280746269 L9.0101791,8.82972174 Z"/>
</svg>
