<svg xmlns="http://www.w3.org/2000/svg" width="14" height="9" viewBox="0 0 14 9">
  <path fill="#C7C7CC" fill-rule="evenodd" d="M6.69759056,7.00899209 L12.0384697,1.66811295 L10.6885386,0.318181818 L4,7.0067204 L4.04886834,7.05558874 L4.04659665,7.05786043 L10.7351352,13.746399 L12.0850664,12.3964679 L6.69759056,7.00899209 Z" transform="matrix(0 -1 -1 0 14 12.085)"/>
</svg>
