<svg xmlns="http://www.w3.org/2000/svg" width="73" height="80" viewBox="0 0 73 80" xmlns:xlink="http://www.w3.org/1999/xlink">
  <defs>
    <polygon id="a" points="28.393 80 0 80 0 .13 28.393 .13"/>
  </defs>
  <g fill="none" fill-rule="evenodd">
    <path fill="#FFFFFF" d="M20.9770115,78.3157895 C20.5170711,78.3157895 20.137931,77.8145553 20.137931,77.2065007 L20.137931,53.3198151 C20.137931,52.7117605 20.5170711,52.2105263 20.9770115,52.2105263 C21.4369519,52.2105263 21.816092,52.7117605 21.816092,53.3198151 L21.816092,77.2065007 C21.816092,77.8145553 21.4369519,78.3157895 20.9770115,78.3157895"/>
    <mask id="b" fill="white">
      <use xlink:href="#a"/>
    </mask>
    <path fill="#FFFFFF" d="M20.58078,3.72940902 C16.0086748,3.72940902 11.7045895,5.59091289 8.46470109,8.97621418 C5.23269564,12.3532787 3.45115118,16.8505403 3.45115118,21.6278511 L3.45115118,58.4872752 C3.45115118,63.2728227 5.23269564,67.7700843 8.46470109,71.1553856 C11.7045895,74.5324501 16.0086748,76.393954 20.58078,76.393954 L23.4028726,76.393954 C23.8127855,76.393954 24.2069325,76.2292191 24.4986013,75.9244597 C24.7902701,75.6197002 24.9479289,75.2160998 24.9479289,74.7795524 L24.9479289,58.7096672 C24.9479289,58.0672013 24.7193236,57.4494456 24.3094107,56.988188 C23.8916149,56.5104569 23.3161603,56.2139341 22.7012909,56.1562769 L16.4343535,55.5879417 C15.5435813,55.5055743 14.8656485,54.7230837 14.8656485,53.7923318 L14.8656485,26.3310313 C14.8656485,25.4002793 15.5435813,24.6177888 16.4343535,24.5354213 L22.7091739,23.9588493 C23.3240432,23.9011921 23.8916149,23.6129061 24.3094107,23.1351751 C24.7193236,22.6656807 24.9479289,22.0561617 24.9479289,21.4136958 L24.9479289,5.34381061 C24.9479289,4.90726324 24.7902701,4.50366284 24.4986013,4.2071401 C24.2069325,3.89414387 23.8127855,3.72940902 23.4028726,3.72940902 L20.58078,3.72940902 Z M23.4028726,80.0016473 L20.58078,80.0016473 C15.0863708,80.0016473 9.91516207,77.7612533 6.0288726,73.7005391 C2.14258312,69.6398249 -0.00157658802,64.2365216 -0.00157658802,58.4872752 L-0.00157658802,21.6278511 C-0.00157658802,15.8868414 2.14258312,10.4835381 6.0288726,6.42282391 C9.91516207,2.36210971 15.0863708,0.129952413 20.58078,0.129952413 L23.4028726,0.129952413 C24.7350895,0.129952413 25.9963599,0.665340695 26.9344298,1.65374983 C27.8724996,2.63392222 28.3927737,3.94356433 28.3927737,5.34381061 L28.3927737,21.4136958 C28.3927737,22.9622035 27.8409679,24.4448172 26.8477174,25.5732509 C25.846584,26.7181582 24.4749525,27.4182813 23.0008426,27.5500692 L18.3104933,27.9783798 L18.3104933,52.1367465 L23.0087256,52.5732938 C24.4907183,52.7133185 25.854467,53.4134416 26.8477174,54.5501121 C27.8409679,55.6785459 28.3927737,57.1529228 28.3927737,58.7096672 L28.3927737,74.7795524 C28.3927737,76.1797987 27.8724996,77.4976775 26.9344298,78.4778499 C25.9963599,79.4580223 24.7350895,80.0016473 23.4028726,80.0016473 L23.4028726,80.0016473 Z" mask="url(#b)"/>
    <path fill="#FFFFFF" d="M20.9770115 26.9473684C20.5170711 26.9473684 20.137931 26.4461342 20.137931 25.8380796L20.137931 1.95139407C20.137931 1.34333946 20.5170711.842105263 20.9770115.842105263 21.4369519.842105263 21.816092 1.34333946 21.816092 1.95139407L21.816092 25.8380796C21.816092 26.4461342 21.4369519 26.9473684 20.9770115 26.9473684M36.9515338 78.3157895C36.0049832 78.3157895 35.2413793 77.5220832 35.2413793 76.5382181 35.2413793 75.5543531 36.0049832 74.752379 36.9515338 74.752379 54.9439501 74.752379 69.579691 59.5479432 69.579691 40.8462391 69.579691 22.1445351 54.9439501 6.93183151 36.9515338 6.93183151 36.0049832 6.93183151 35.2413793 6.13812524 35.2413793 5.14599239 35.2413793 4.16212733 36.0049832 3.36842105 36.9515338 3.36842105 56.8290971 3.36842105 73 20.1768049 73 40.8462391 73 61.5074056 56.8290971 78.3157895 36.9515338 78.3157895"/>
    <path fill="#FFFFFF" d="M40.66845 49.6842105L31.5229815 49.6842105C30.7988297 49.6842105 30.1397701 49.5484555 29.5864855 49.2005833 28.8541971 48.8272571 28.5287356 48.2757524 28.5287356 47.5884926 28.5287356 46.5279067 29.0576106 45.4333819 30.1397701 44.262495 30.7988297 43.5412966 32.0111738 42.5485881 33.7605294 41.2758849 34.5823197 40.6649874 35.8028004 39.697733 37.3812887 38.3571523 38.4715848 37.2626276 39.0248694 36.2699191 39.0248694 35.3111494 39.0248694 34.2845022 38.626179 33.4530028 37.9101637 32.9014981 37.2511041 32.4263556 36.3967677 32.1548456 35.3715639 32.1548456 33.0038314 32.1548456 31.6531661 32.9778603 31.2626123 34.6238897 31.1893835 35.0311547 31.091745 35.6165982 30.9290143 36.3377966 30.7337374 36.8553626 30.3675932 37.0929338 29.8143086 37.0929338 29.4481644 37.0929338 29.155249 36.9486942 28.927426 36.6771841 28.6589202 36.4396129 28.5287356 36.1341641 28.5287356 35.7523532 28.5287356 33.800875 29.1877952 32.2227231 30.5710066 31.0518361 31.8240334 30.0251889 33.3943852 29.4736842 35.3715639 29.4736842 37.2511041 29.4736842 38.7970463 29.9573114 39.9768443 30.8821424 41.2949634 31.9087896 41.954023 33.3851253 41.954023 35.3111494 41.954023 36.6093066 41.425148 37.8820098 40.440627 39.1122895 39.6513828 40.0456052 38.5285406 41.0383137 37.0151445 42.1328384 35.8353466 42.9643378 34.6799582 43.8212913 33.5327064 44.6358213 32.377318 45.4927748 31.6531661 46.2903354 31.3602508 47.0115339L40.66845 47.0115339C40.9939115 47.0115339 41.2949634 47.1472889 41.5553326 47.3848601 41.8238384 47.6563701 41.954023 47.9703036 41.954023 48.3436299 41.954023 49.2345221 41.5227865 49.6842105 40.66845 49.6842105M53.9903904 34.3897582L48.3868167 42.6245959 53.9903904 42.6245959 53.9903904 34.3897582zM59.2896976 45.1653951C58.943172 45.239881 58.1909577 45.2647097 57.0330548 45.2647097L57.0330548 48.376568C57.0330548 48.7158929 56.8640179 49.0138368 56.5512996 49.286952 56.2132258 49.551791 55.875152 49.6842105 55.5286263 49.6842105 54.505953 49.6842105 53.9903904 49.2455709 53.9903904 48.376568L53.9903904 45.2647097 47.3979507 45.2647097C45.9949443 45.2647097 45.3103448 44.8343463 45.3103448 43.9322385 45.3103448 43.2949696 45.4455744 42.7570154 45.7160334 42.3514807L53.6185092 30.6075262C54.0918125 29.8709427 54.7426046 29.4736842 55.5286263 29.4736842 55.875152 29.4736842 56.2132258 29.7054183 56.5512996 30.1440579 56.8640179 30.6075262 57.0330548 31.0130609 57.0330548 31.3772145L57.0330548 42.6245959C58.0895355 42.6245959 58.8079424 42.6577008 59.1544681 42.7239105 59.9658453 42.9225398 60.4137931 43.3280745 60.4137931 43.9322385 60.4137931 44.594336 60.0419119 44.9998707 59.2896976 45.1653951L59.2896976 45.1653951z"/>
  </g>
</svg>
