<svg xmlns="http://www.w3.org/2000/svg" width="24" height="20" viewBox="0 0 24 20">
  <path fill="#FFFFFF" d="M23.4249412,19.2490909 L12.1722353,0.423181818 C12.0042353,0.141818182 11.5251765,0.141818182 11.3571765,0.423181818 L0.0630588235,19.3181818 C-0.0207058824,19.4590909 -0.0207058824,19.6318182 0.0630588235,19.7727273 C0.147294118,19.9136364 0.302588235,20 0.470588235,20 L23.0588235,20 C23.0616471,19.9995455 23.0654118,19.9995455 23.0682353,20 C23.3284706,20 23.5388235,19.7968182 23.5388235,19.5454545 C23.5388235,19.4322727 23.496,19.3286364 23.4249412,19.2490909 L23.4249412,19.2490909 Z M11.056,7.39272727 C11.056,7.295 11.1237647,7.22954545 11.2249412,7.22954545 L12.3049412,7.22954545 C12.4061176,7.22954545 12.4729412,7.295 12.4729412,7.39272727 L12.4729412,13.9663636 C12.4729412,14.0640909 12.4056471,14.1290909 12.3049412,14.1290909 L11.2249412,14.1290909 C11.1232941,14.1290909 11.056,14.0636364 11.056,13.9663636 L11.056,7.39272727 L11.056,7.39272727 Z M12.5072941,16.7890909 C12.5072941,16.8868182 12.44,16.9518182 12.3392941,16.9518182 L11.192,16.9518182 C11.0908235,16.9518182 11.0230588,16.8863636 11.0230588,16.7890909 L11.0230588,15.5986364 C11.0230588,15.5009091 11.0912941,15.4359091 11.192,15.4359091 L12.3392941,15.4359091 C12.4414118,15.4359091 12.5072941,15.5013636 12.5072941,15.5986364 L12.5072941,16.7890909 L12.5072941,16.7890909 Z"/>
</svg>
