<svg xmlns="http://www.w3.org/2000/svg" width="26" height="22" viewBox="0 0 26 22">
  <path fill="none" stroke="#0087FF" d="M41.4247059,33.0369318 L30.172,14.2110227 C30.004,13.9296591 29.5249412,13.9296591 29.3569412,14.2110227 L18.0628235,33.1060227 C17.9790588,33.2469318 17.9790588,33.4196591 18.0628235,33.5605682 C18.1470588,33.7014773 18.3023529,33.7878409 18.4703529,33.7878409 L41.0585882,33.7878409 C41.0614118,33.7873864 41.0651765,33.7873864 41.068,33.7878409 C41.3282353,33.7878409 41.5385882,33.5846591 41.5385882,33.3332954 C41.5385882,33.2201136 41.4957647,33.1164773 41.4247059,33.0369318 L41.4247059,33.0369318 Z M29.0557647,21.1805682 C29.0557647,21.0828409 29.1235294,21.0173864 29.2247059,21.0173864 L30.3047059,21.0173864 C30.4058823,21.0173864 30.4727059,21.0828409 30.4727059,21.1805682 L30.4727059,27.7542045 C30.4727059,27.8519318 30.4054118,27.9169318 30.3047059,27.9169318 L29.2247059,27.9169318 C29.1230588,27.9169318 29.0557647,27.8514773 29.0557647,27.7542045 L29.0557647,21.1805682 L29.0557647,21.1805682 Z M30.5070588,30.5769318 C30.5070588,30.6746591 30.4397647,30.7396591 30.3390588,30.7396591 L29.1917647,30.7396591 C29.0905882,30.7396591 29.0228235,30.6742045 29.0228235,30.5769318 L29.0228235,29.3864773 C29.0228235,29.28875 29.0910588,29.22375 29.1917647,29.22375 L30.3390588,29.22375 C30.4411765,29.22375 30.5070588,29.2892045 30.5070588,29.3864773 L30.5070588,30.5769318 L30.5070588,30.5769318 Z" transform="translate(-17 -13)"/>
</svg>
