<svg xmlns="http://www.w3.org/2000/svg" width="91" height="86" viewBox="0 0 91 86">
  <path fill="#FFFFFF" d="M160.577669,208.830018 L160.577669,191.855522 L142.268828,191.855522 L142.268828,134.268828 L221.731172,134.268828 L221.731172,191.855522 L179.862671,191.855522 L160.577669,208.830018 Z M178.555949,188.393178 L218.268828,188.393178 L218.268828,137.731172 L145.731172,137.731172 L145.731172,188.393178 L164.040013,188.393178 L164.040013,201.169982 L178.555949,188.393178 Z M229.268828,126.731172 L156.731172,126.731172 L156.731172,133.466632 L153.268828,133.466632 L153.268828,123.268828 L232.731172,123.268828 L232.731172,180.731172 L222.601875,180.731172 L222.601875,177.268828 L229.268828,177.268828 L229.268828,126.731172 Z" transform="translate(-142 -123)"/>
</svg>
